@startuml Theme

!include https://gitlab.com/fheinri2/plantuml-themes/-/raw/master/theme/colors.puml
!include https://gitlab.com/fheinri2/plantuml-themes/-/raw/master/theme/definitions.puml
!include https://gitlab.com/fheinri2/plantuml-themes/-/raw/master/theme/appliment.puml

!ifndef NOADAPTATIONS
  !include https://gitlab.com/fheinri2/plantuml-themes/-/raw/master/theme/adaptations.puml
!endif

@enduml