@startuml Predefined Color ORANGE
' Predefine color ORANGE.
' Note: Each color as a LIGHT and DARK style.

'------------------------------------------------
' ORANGE

!ifdef DARKORANGE
  !define DARKSTYLE
  !$LIGHTCOLOR ?= "BB6600"
  !$DARKCOLOR ?= "662200"
!endif

!ifdef LIGHTORANGE
  !define LIGHTSTYLE
  !$LIGHTCOLOR ?= "FF8800"
  !$DARKCOLOR ?= "BB6600"
!endif

@enduml