@startuml Deployment Example

actor actor
actor/ "actor/"
agent agent
artifact artifact
boundary boundary
card card
circle circle
cloud cloud
collections collections
component component
control control
database database
entity entity
file file
folder folder
frame frame
hexagon hexagon
interface interface
label label
node node
package package
'person person
queue queue
rectangle rectangle
stack stack
storage storage
usecase usecase
usecase/ "usecase/"

' artifact artifact {
'   card card {
'     cloud cloud {
'       component component {
'         database database {
'           file file {
'             folder folder {
'               frame frame {
'                 hexagon hexagon {
'                   node node {
'                     package package {
'                       queue queue {
'                         rectangle rectangle {
'                           stack stack {
'                             storage storage {
'                             }
'                           }
'                         }
'                       }
'                     }
'                   }
'                 }
'               }
'             }
'           }
'         }
'       }
'     }
'   }
' }

@enduml