@startuml Colors
' Predefined and default color definitions.

'------------------------------------------------
' Predefined colors

' Each color comes in a set as a LIGHT and DARK style.
' Naming convention: {LIGHT,DARK}COLOR

!include https://gitlab.com/fheinri2/plantuml-themes/-/raw/master/theme/colors/blue.puml
!include https://gitlab.com/fheinri2/plantuml-themes/-/raw/master/theme/colors/green.puml
!include https://gitlab.com/fheinri2/plantuml-themes/-/raw/master/theme/colors/orange.puml
!include https://gitlab.com/fheinri2/plantuml-themes/-/raw/master/theme/colors/red.puml


'------------------------------------------------
' Color Fallback (LIGHTBLUE)

!ifdef !LIGHTSTYLE && !DARKSTYLE
  !define LIGHTBLUE
  !include https://gitlab.com/fheinri2/plantuml-themes/-/raw/master/theme/colors/blue.puml
!endif


'------------------------------------------------
' Transparent Background

!ifdef TRANSPARENT
  !ifdef DARKSTYLE
    !$BORDERCOLOR ?= "aaa"
  !endif
  !$SHADOW ?= "false"
  !$ACCENT ?= "transparent"
  !$BG ?= "transparent"
  !$BOXBG ?= "transparent"
  !$DARKBG ?= "transparent"
  !$LIGHTBG ?= "transparent"
!endif


'------------------------------------------------
' Style definitions

!ifdef LIGHTSTYLE
  !$BG ?= "fff"
  !$PRIMARYFONTCOLOR ?= "000"
  !$SECONDARYFONTCOLOR ?= "333"
  !$ARROWCOLOR ?= "000"
  !$ARROWFONTCOLOR ?= "333"
  !$BORDERCOLOR ?= "aaa"
  !$BOXBG ?= "ccc"
  !$LIFELINEBG ?= "aaa"
  !$DARKBG ?= $DARKCOLOR
  !$LIGHTBG ?= $LIGHTCOLOR
!endif

!ifdef DARKSTYLE
  !$BG ?= "777"
  !$PRIMARYFONTCOLOR ?= "fff"
  !$SECONDARYFONTCOLOR ?= "aaa"
  !$ARROWCOLOR ?= "fff"
  !$ARROWFONTCOLOR ?= "bbb"
  !$BORDERCOLOR ?= "1b1b1b"
  !$BOXBG ?= "2e2e2e"
  !$LIFELINEBG ?= "1b1b1b"
  !$DARKBG ?= $DARKCOLOR
  !$LIGHTBG ?= $LIGHTCOLOR
!endif

@enduml