@startuml Theme Definitions
' Define variables and precedures

!$FONTNAME ?= "Verdana"
!$FONTSIZE ?= 11
!$CIRCLERADIUS ?= 9
!$SHADOW ?= "true"


'------------------------------------------------
' Procedures

!procedure font_style()
  fontColor $PRIMARYFONTCOLOR
  fontName $FONTNAME
  fontSize $FONTSIZE
  stereotypeFontColor $SECONDARYFONTCOLOR
  stereotypeFontSize $FONTSIZE
  attributeFontColor $SECONDARYFONTCOLOR
  attributeFontSize $FONTSIZE
!endprocedure

!procedure basic_style()
  backgroundColor $BOXBG
  borderColor $BORDERCOLOR
  stereotypeABackgroundColor $LIGHTBG
  stereotypeCBackgroundColor $LIGHTBG
  stereotypeEBackgroundColor $LIGHTBG
  stereotypeIBackgroundColor $LIGHTBG
  stereotypeNBackgroundColor $LIGHTBG
!endprocedure

!procedure light_style()
  backgroundColor $LIGHTBG
  borderColor $LIGHTBORDERCOLOR
!endprocedure

!procedure LIGHTCOLOR_style()
  backgroundColor $LIGHTBG
  !ifdef TRANSPARENT
    borderColor $LIGHTCOLOR
  !else
    borderColor $DARKCOLOR
  !endif
!endprocedure

!procedure arrow_style()
  arrowColor $ARROWCOLOR
  arrowFontName $FONTNAME
  arrowFontColor $ARROWFONTCOLOR
  arrowFontSize $FONTSIZE
!endprocedure

@enduml